…
    ## [[1]]
    ## # A tibble: 7 × 2
    ##    apoe     n
    ##   <dbl> <int>
    ## 1    22     3
    ## 2    23    10
    ## 3    24     7
    ## 4    33   115
    ## 5    34    43
    ## 6    44     6
    ## 7    NA    37
    ## 
    ## [[2]]
    ## # A tibble: 30 × 2
    ##    footyrs     n
    ##      <dbl> <int>
    ##  1       1     1
    ##  2       2     1
    ##  3       3     7
    ##  4       4     5
    ##  5       5     1
    ##  6       6     7
    ##  7       7     5
    ##  8       8    16
    ##  9       9    14
    ## 10      10    11
    ## # … with 20 more rows
    ## 
    ## [[3]]
…
    ##  7     9     8
    ##  8    10    28
    ##  9    11     9
    ## 10    12    26
    ## 11    13    23
    ## 12    14    37
    ## 13    15    14
    ## 14    16    10
    ## 15    18     3
    ## 16    20     1
    ## 17    22     1
    ## 18    NA    19
    ## 
    ## [[4]]
    ## # A tibble: 32 × 2
    ##    totyrs     n
    ##     <dbl> <int>
    ##  1      1     3
    ##  2      2     1
    ##  3      3     4
    ##  4      4     7
    ##  5      5     2
    ##  6      6     7
    ##  7      7     4
    ##  8      8    15
    ##  9      9    12
    ## 10     10    10
    ## # … with 22 more rows
    ## 
    ## [[5]]
…
    ##   npftdtdp     n
    ##      <dbl> <int>
    ## 1        0   211
    ## 2        1     9
    ## 3       NA     1
    ## 
    ## [[40]]
    ## # A tibble: 2 × 2
    ##                             npoftd     n
    ##                          <dbl+lbl> <int>
    ## 1  0 [0 No (SKIP TO QUESTION 18a)]   213
    ## 2 NA                                   8
    ## 
    ## [[41]]
    ## # A tibble: 61 × 2
    ##    agedeath     n
    ##       <dbl> <int>
    ##  1       18     1
    ##  2       21     1
    ##  3       22     1
    ##  4       23     1
    ##  5       25     2
    ##  6       27     2
    ##  7       29     1
    ##  8       30     1
    ##  9       32     1
    ## 10       34     1
    ## # … with 51 more rows
    ## 
    ## [[42]]
…
    ## # A tibble: 2 × 2
    ##   micinfpar     n
    ##       <dbl> <int>
    ## 1         0   218
    ## 2        NA     3
    ## 
    ## [[52]]
    ## # A tibble: 2 × 2
    ##   micalc     n
    ##    <dbl> <int>
    ## 1      0   219
    ## 2     NA     2
    ## 
    ## [[53]]
    ## # A tibble: 60 × 2
    ##    agecogsx     n
    ##       <dbl> <int>
    ##  1        8     1
    ##  2       10     1
    ##  3       15     1
    ##  4       16     3
    ##  5       20     4
    ##  6       23     2
    ##  7       28     1
    ##  8       30     3
    ##  9       32     1
    ## 10       33     1
    ## # … with 50 more rows
    ## 
    ## [[54]]
    ## # A tibble: 61 × 2
    ##    cogdecage     n
    ##        <dbl> <int>
    ##  1        13     1
    ##  2        15     1
    ##  3        17     1
    ##  4        19     1
    ##  5        20     1
    ##  6        21     2
    ##  7        22     3
    ##  8        23     2
    ##  9        25     3
    ## 10        26     3
    ## # … with 51 more rows
    ## 
    ## [[55]]
    ## # A tibble: 67 × 2
    ##    mincogage     n
    ##        <dbl> <int>
    ##  1         8     1
    ##  2        10     1
    ##  3        13     1
    ##  4        15     1
    ##  5        16     2
    ##  6        17     1
    ##  7        19     1
    ##  8        20     5
    ##  9        21     2
    ## 10        22     2
    ## # … with 57 more rows
    ## 
    ## [[56]]
    ## # A tibble: 3 × 2
    ##     suicide     n
    ##   <dbl+lbl> <int>
    ## 1   0 [No]    202
    ## 2   1 [Yes]    13
    ## 3  NA           6
    ## 
    ## [[57]]
    ## # A tibble: 46 × 2
    ##    disdur     n
    ##     <dbl> <int>
    ##  1      0     2
    ##  2      1     5
    ##  3      2     3
    ##  4      3     5
    ##  5      4    12
    ##  6      5    13
    ##  7      6    10
    ##  8      7     6
    ##  9      8     6
    ## 10      9     9
    ## # … with 36 more rows
    ## 
    ## [[58]]
…
